--
-- ER/Studio 8.0 SQL Code Generation
-- Company :      Ardon
-- Project :      practica4.dm1
-- Author :       Francisco
--
-- Date Created : Wednesday, April 22, 2015 21:02:56
-- Target DBMS : PostgreSQL 8.0
--

-- 
-- TABLE: "ASIGNA_BUS" 
--

CREATE TABLE "ASIGNA_BUS"(
    "BUS"   integer     NOT NULL,
    "RUTA"  char(10)    NOT NULL,
    CONSTRAINT "PK10" PRIMARY KEY ("BUS", "RUTA")
)
;



-- 
-- TABLE: "ASIGNA_RUTA" 
--

CREATE TABLE "ASIGNA_RUTA"(
    "RUTA"    char(10)    NOT NULL,
    "PARADA"  integer     NOT NULL,
    "ORDEN"   integer     NOT NULL,
    CONSTRAINT "PK3" PRIMARY KEY ("RUTA", "PARADA")
)
;



-- 
-- TABLE: "ASIGNA_VIAJE" 
--

CREATE TABLE "ASIGNA_VIAJE"(
    "VIAJE"   integer    NOT NULL,
    "PARADA"  integer    NOT NULL,
    CONSTRAINT "PK9" PRIMARY KEY ("VIAJE", "PARADA")
)
;



-- 
-- TABLE: "BUS" 
--

CREATE TABLE "BUS"(
    "BUS"       integer    NOT NULL,
    "TIPO_BUS"  integer    NOT NULL,
    CONSTRAINT "PK1" PRIMARY KEY ("BUS")
)
;



-- 
-- TABLE: "CLIENTE" 
--

CREATE TABLE "CLIENTE"(
    "CLIENTE"           integer        NOT NULL,
    "NOMBRE"            varchar(10)    NOT NULL,
    "FECHA_NACIMIENTO"  date           NOT NULL,
    CONSTRAINT "PK4" PRIMARY KEY ("CLIENTE")
)
;



-- 
-- TABLE: "FACTURA" 
--

CREATE TABLE "FACTURA"(
    "VIAJE"    integer    NOT NULL,
    "CLIENTE"  integer    NOT NULL,
    "TICKET"   integer    NOT NULL
)
;



-- 
-- TABLE: "PARADA" 
--

CREATE TABLE "PARADA"(
    "PARADA"        integer        NOT NULL,
    "LOCALIZACION"  varchar(25)    NOT NULL,
    CONSTRAINT "PK6" PRIMARY KEY ("PARADA")
)
;



-- 
-- TABLE: "RUTA" 
--

CREATE TABLE "RUTA"(
    "RUTA"    char(10)       NOT NULL,
    "NOMBRE"  varchar(10),
    CONSTRAINT "PK5" PRIMARY KEY ("RUTA")
)
;



-- 
-- TABLE: "TICKET" 
--

CREATE TABLE "TICKET"(
    "TICKET"       integer         NOT NULL,
    "DESCRIPCION"  varchar(150),
    "VIAJE"        integer         NOT NULL,
    "ESTADO"       boolean,
    CONSTRAINT "PK11" PRIMARY KEY ("TICKET")
)
;



-- 
-- TABLE: "TIPO_BUS" 
--

CREATE TABLE "TIPO_BUS"(
    "TIPO_BUS"        integer        NOT NULL,
    "NUMERO_ASIENTO"  integer        NOT NULL,
    "NOMBRE"          varchar(10)    NOT NULL,
    CONSTRAINT "PK2" PRIMARY KEY ("TIPO_BUS")
)
;



-- 
-- TABLE: "VIAJE" 
--

CREATE TABLE "VIAJE"(
    "VIAJE"   integer     NOT NULL,
    "PRECIO"  integer     NOT NULL,
    "RUTA"    char(10)    NOT NULL,
    "INICIO"  integer     NOT NULL,
    "FIN"     integer     NOT NULL,
    CONSTRAINT "PK8" PRIMARY KEY ("VIAJE")
)
;



-- 
-- TABLE: "ASIGNA_BUS" 
--

ALTER TABLE "ASIGNA_BUS" ADD CONSTRAINT "RefBUS18" 
    FOREIGN KEY ("BUS")
    REFERENCES "BUS"("BUS")
;

ALTER TABLE "ASIGNA_BUS" ADD CONSTRAINT "RefRUTA19" 
    FOREIGN KEY ("RUTA")
    REFERENCES "RUTA"("RUTA")
;


-- 
-- TABLE: "ASIGNA_RUTA" 
--

ALTER TABLE "ASIGNA_RUTA" ADD CONSTRAINT "RefRUTA1" 
    FOREIGN KEY ("RUTA")
    REFERENCES "RUTA"("RUTA")
;

ALTER TABLE "ASIGNA_RUTA" ADD CONSTRAINT "RefPARADA2" 
    FOREIGN KEY ("PARADA")
    REFERENCES "PARADA"("PARADA")
;


-- 
-- TABLE: "ASIGNA_VIAJE" 
--

ALTER TABLE "ASIGNA_VIAJE" ADD CONSTRAINT "RefVIAJE15" 
    FOREIGN KEY ("VIAJE")
    REFERENCES "VIAJE"("VIAJE")
;

ALTER TABLE "ASIGNA_VIAJE" ADD CONSTRAINT "RefPARADA16" 
    FOREIGN KEY ("PARADA")
    REFERENCES "PARADA"("PARADA")
;


-- 
-- TABLE: "BUS" 
--

ALTER TABLE "BUS" ADD CONSTRAINT "RefTIPO_BUS3" 
    FOREIGN KEY ("TIPO_BUS")
    REFERENCES "TIPO_BUS"("TIPO_BUS")
;


-- 
-- TABLE: "FACTURA" 
--

ALTER TABLE "FACTURA" ADD CONSTRAINT "RefVIAJE12" 
    FOREIGN KEY ("VIAJE")
    REFERENCES "VIAJE"("VIAJE")
;

ALTER TABLE "FACTURA" ADD CONSTRAINT "RefCLIENTE17" 
    FOREIGN KEY ("CLIENTE")
    REFERENCES "CLIENTE"("CLIENTE")
;

ALTER TABLE "FACTURA" ADD CONSTRAINT "RefTICKET22" 
    FOREIGN KEY ("TICKET")
    REFERENCES "TICKET"("TICKET")
;


-- 
-- TABLE: "TICKET" 
--

ALTER TABLE "TICKET" ADD CONSTRAINT "RefVIAJE20" 
    FOREIGN KEY ("VIAJE")
    REFERENCES "VIAJE"("VIAJE")
;


-- 
-- TABLE: "VIAJE" 
--

ALTER TABLE "VIAJE" ADD CONSTRAINT "RefASIGNA_RUTA10" 
    FOREIGN KEY ("RUTA", "INICIO")
    REFERENCES "ASIGNA_RUTA"("RUTA", "PARADA")
;

ALTER TABLE "VIAJE" ADD CONSTRAINT "RefASIGNA_RUTA11" 
    FOREIGN KEY ("RUTA", "FIN")
    REFERENCES "ASIGNA_RUTA"("RUTA", "PARADA")
;

